…
``` r
# Create a data set to work with 
gapdata <- gapminder %>%
  filter(year == 2007 & 
           continent %in% c("Americas", "Europe", "Asia")) %>%
  select(continent, lifeExp)
```

``` r
gapdata
```

    ## # A tibble: 88 × 2
    ##    continent lifeExp
    ##    <fct>       <dbl>
    ##  1 Asia         43.8
    ##  2 Europe       76.4
    ##  3 Americas     75.3
    ##  4 Europe       79.8
    ##  5 Asia         75.6
    ##  6 Asia         64.1
    ##  7 Europe       79.4
    ##  8 Americas     65.6
    ##  9 Europe       74.9
    ## 10 Americas     72.4
    ## # ℹ 78 more rows
…
